-------------------------------------
| Tool Version : Vivado v.2023.2
| Date         : Fri Mar 29 11:34:40 2024
| Host         : MERKAN
| Design       : design_1
| Device       : xc7a200t-sbg484-1--
-------------------------------------

For more information on clockInfo.txt clock routing debug file see https://support.xilinx.com/s/article/000035660?language=en_US

