Copyright 1986-2022 Xilinx, Inc. All Rights Reserved. Copyright 2022-2023 Advanced Micro Devices, Inc. All Rights Reserved.
------------------------------------------------------------------------------------------------------------------------------------------------------------------------------------------------------------------------------
| Tool Version : Vivado v.2023.2 (win64) Build 4029153 Fri Oct 13 20:14:34 MDT 2023
| Date         : Fri Mar 29 10:49:01 2024
| Host         : MERKAN running 64-bit major release  (build 9200)
| Command      : report_timing_summary -max_paths 10 -report_unconstrained -file exp_2_logic_timing_summary_routed.rpt -pb exp_2_logic_timing_summary_routed.pb -rpx exp_2_logic_timing_summary_routed.rpx -warn_on_violation
| Design       : exp_2_logic
| Device       : 7a200t-sbg484
| Speed File   : -1  PRODUCTION 1.23 2018-06-13
| Design State : Routed
------------------------------------------------------------------------------------------------------------------------------------------------------------------------------------------------------------------------------

Timing Summary Report

------------------------------------------------------------------------------------------------
| Timer Settings
| --------------
------------------------------------------------------------------------------------------------

  Enable Multi Corner Analysis               :  Yes
  Enable Pessimism Removal                   :  Yes
  Pessimism Removal Resolution               :  Nearest Common Node
  Enable Input Delay Default Clock           :  No
  Enable Preset / Clear Arcs                 :  No
  Disable Flight Delays                      :  No
  Ignore I/O Paths                           :  No
  Timing Early Launch at Borrowing Latches   :  No
  Borrow Time for Max Delay Exceptions       :  Yes
  Merge Timing Exceptions                    :  Yes
  Inter-SLR Compensation                     :  Conservative

  Corner  Analyze    Analyze    
  Name    Max Paths  Min Paths  
  ------  ---------  ---------  
  Slow    Yes        Yes        
  Fast    Yes        Yes        


------------------------------------------------------------------------------------------------
| Report Methodology
| ------------------
------------------------------------------------------------------------------------------------

Rule       Severity  Description                     Violations  
---------  --------  ------------------------------  ----------  
TIMING-20  Warning   Non-clocked latch               1           
LATCH-1    Advisory  Existing latches in the design  1           

Note: This report is based on the most recent report_methodology run and may not be up-to-date. Run report_methodology on the current design for the latest report.



check_timing report

Table of Contents
-----------------
1. checking no_clock (5)
2. checking constant_clock (0)
3. checking pulse_width_clock (0)
4. checking unconstrained_internal_endpoints (1)
5. checking no_input_delay (6)
6. checking no_output_delay (1)
7. checking multiple_clock (0)
8. checking generated_clocks (0)
9. checking loops (0)
10. checking partial_input_delay (0)
11. checking partial_output_delay (0)
12. checking latch_loops (0)

1. checking no_clock (5)
------------------------
 There is 1 register/latch pin with no clock driven by root clock pin: s_and (HIGH)

 There is 1 register/latch pin with no clock driven by root clock pin: s_nand (HIGH)

 There is 1 register/latch pin with no clock driven by root clock pin: s_nor (HIGH)

 There is 1 register/latch pin with no clock driven by root clock pin: s_or (HIGH)

 There is 1 register/latch pin with no clock driven by root clock pin: s_xor (HIGH)


2. checking constant_clock (0)
------------------------------
 There are 0 register/latch pins with constant_clock.


3. checking pulse_width_clock (0)
---------------------------------
 There are 0 register/latch pins which need pulse_width check


4. checking unconstrained_internal_endpoints (1)
------------------------------------------------
 There is 1 pin that is not constrained for maximum delay. (HIGH)

 There are 0 pins that are not constrained for maximum delay due to constant clock.


5. checking no_input_delay (6)
------------------------------
 There are 6 input ports with no input delay specified. (HIGH)

 There are 0 input ports with no input delay but user has a false path constraint.


6. checking no_output_delay (1)
-------------------------------
 There is 1 port with no output delay specified. (HIGH)

 There are 0 ports with no output delay but user has a false path constraint

 There are 0 ports with no output delay but with a timing clock defined on it or propagating through it


7. checking multiple_clock (0)
------------------------------
 There are 0 register/latch pins with multiple clocks.


8. checking generated_clocks (0)
--------------------------------
 There are 0 generated clocks that are not connected to a clock source.


9. checking loops (0)
---------------------
 There are 0 combinational loops in the design.


10. checking partial_input_delay (0)
------------------------------------
 There are 0 input ports with partial input delay specified.


11. checking partial_output_delay (0)
-------------------------------------
 There are 0 ports with partial output delay specified.


12. checking latch_loops (0)
----------------------------
 There are 0 combinational latch loops in the design through latch input



------------------------------------------------------------------------------------------------
| Design Timing Summary
| ---------------------
------------------------------------------------------------------------------------------------

    WNS(ns)      TNS(ns)  TNS Failing Endpoints  TNS Total Endpoints      WHS(ns)      THS(ns)  THS Failing Endpoints  THS Total Endpoints     WPWS(ns)     TPWS(ns)  TPWS Failing Endpoints  TPWS Total Endpoints  
    -------      -------  ---------------------  -------------------      -------      -------  ---------------------  -------------------     --------     --------  ----------------------  --------------------  
        inf        0.000                      0                    9          inf        0.000                      0                    9           NA           NA                      NA                    NA  


There are no user specified timing constraints.


------------------------------------------------------------------------------------------------
| Clock Summary
| -------------
------------------------------------------------------------------------------------------------


------------------------------------------------------------------------------------------------
| Intra Clock Table
| -----------------
------------------------------------------------------------------------------------------------

Clock             WNS(ns)      TNS(ns)  TNS Failing Endpoints  TNS Total Endpoints      WHS(ns)      THS(ns)  THS Failing Endpoints  THS Total Endpoints     WPWS(ns)     TPWS(ns)  TPWS Failing Endpoints  TPWS Total Endpoints  
-----             -------      -------  ---------------------  -------------------      -------      -------  ---------------------  -------------------     --------     --------  ----------------------  --------------------  


------------------------------------------------------------------------------------------------
| Inter Clock Table
| -----------------
------------------------------------------------------------------------------------------------

From Clock    To Clock          WNS(ns)      TNS(ns)  TNS Failing Endpoints  TNS Total Endpoints      WHS(ns)      THS(ns)  THS Failing Endpoints  THS Total Endpoints  
----------    --------          -------      -------  ---------------------  -------------------      -------      -------  ---------------------  -------------------  


------------------------------------------------------------------------------------------------
| Other Path Groups Table
| -----------------------
------------------------------------------------------------------------------------------------

Path Group    From Clock    To Clock          WNS(ns)      TNS(ns)  TNS Failing Endpoints  TNS Total Endpoints      WHS(ns)      THS(ns)  THS Failing Endpoints  THS Total Endpoints  
----------    ----------    --------          -------      -------  ---------------------  -------------------      -------      -------  ---------------------  -------------------  


------------------------------------------------------------------------------------------------
| User Ignored Path Table
| -----------------------
------------------------------------------------------------------------------------------------

Path Group    From Clock    To Clock    
----------    ----------    --------    


------------------------------------------------------------------------------------------------
| Unconstrained Path Table
| ------------------------
------------------------------------------------------------------------------------------------

Path Group    From Clock    To Clock    
----------    ----------    --------    
(none)                                    


------------------------------------------------------------------------------------------------
| Timing Details
| --------------
------------------------------------------------------------------------------------------------


--------------------------------------------------------------------------------------
Path Group:  (none)
From Clock:  
  To Clock:  

Max Delay             9 Endpoints
Min Delay             9 Endpoints
--------------------------------------------------------------------------------------


Max Delay Paths
--------------------------------------------------------------------------------------
Slack:                    inf
  Source:                 s_and
                            (input port)
  Destination:            led[2]
                            (output port)
  Path Group:             (none)
  Path Type:              Max at Slow Process Corner
  Data Path Delay:        10.152ns  (logic 3.984ns (39.246%)  route 6.168ns (60.754%))
  Logic Levels:           2  (IBUF=1 OBUF=1)

    Location             Delay type                Incr(ns)  Path(ns)    Netlist Resource(s)
  -------------------------------------------------------------------    -------------------
    G21                                               0.000     0.000 r  s_and (IN)
                         net (fo=0)                   0.000     0.000    s_and
    G21                  IBUF (Prop_ibuf_I_O)         1.069     1.069 r  s_and_IBUF_inst/O
                         net (fo=3, routed)           6.168     7.236    led_OBUF[2]
    T16                  OBUF (Prop_obuf_I_O)         2.915    10.152 r  led_OBUF[2]_inst/O
                         net (fo=0)                   0.000    10.152    led[2]
    T16                                                               r  led[2] (OUT)
  -------------------------------------------------------------------    -------------------

Slack:                    inf
  Source:                 b
                            (input port)
  Destination:            led[1]
                            (output port)
  Path Group:             (none)
  Path Type:              Max at Slow Process Corner
  Data Path Delay:        9.945ns  (logic 4.017ns (40.387%)  route 5.928ns (59.613%))
  Logic Levels:           2  (IBUF=1 OBUF=1)

    Location             Delay type                Incr(ns)  Path(ns)    Netlist Resource(s)
  -------------------------------------------------------------------    -------------------
    F21                                               0.000     0.000 r  b (IN)
                         net (fo=0)                   0.000     0.000    b
    F21                  IBUF (Prop_ibuf_I_O)         1.067     1.067 r  b_IBUF_inst/O
                         net (fo=2, routed)           5.928     6.996    led_OBUF[1]
    T15                  OBUF (Prop_obuf_I_O)         2.949     9.945 r  led_OBUF[1]_inst/O
                         net (fo=0)                   0.000     9.945    led[1]
    T15                                                               r  led[1] (OUT)
  -------------------------------------------------------------------    -------------------

Slack:                    inf
  Source:                 a
                            (input port)
  Destination:            led[0]
                            (output port)
  Path Group:             (none)
  Path Type:              Max at Slow Process Corner
  Data Path Delay:        9.924ns  (logic 4.034ns (40.646%)  route 5.890ns (59.354%))
  Logic Levels:           2  (IBUF=1 OBUF=1)

    Location             Delay type                Incr(ns)  Path(ns)    Netlist Resource(s)
  -------------------------------------------------------------------    -------------------
    E22                                               0.000     0.000 r  a (IN)
                         net (fo=0)                   0.000     0.000    a
    E22                  IBUF (Prop_ibuf_I_O)         1.080     1.080 r  a_IBUF_inst/O
                         net (fo=2, routed)           5.890     6.970    led_OBUF[0]
    T14                  OBUF (Prop_obuf_I_O)         2.954     9.924 r  led_OBUF[0]_inst/O
                         net (fo=0)                   0.000     9.924    led[0]
    T14                                                               r  led[0] (OUT)
  -------------------------------------------------------------------    -------------------

Slack:                    inf
  Source:                 s_nand
                            (input port)
  Destination:            led[3]
                            (output port)
  Path Group:             (none)
  Path Type:              Max at Slow Process Corner
  Data Path Delay:        9.896ns  (logic 3.986ns (40.279%)  route 5.910ns (59.721%))
  Logic Levels:           2  (IBUF=1 OBUF=1)

    Location             Delay type                Incr(ns)  Path(ns)    Netlist Resource(s)
  -------------------------------------------------------------------    -------------------
    G22                                               0.000     0.000 r  s_nand (IN)
                         net (fo=0)                   0.000     0.000    s_nand
    G22                  IBUF (Prop_ibuf_I_O)         1.069     1.069 r  s_nand_IBUF_inst/O
                         net (fo=3, routed)           5.910     6.978    led_OBUF[3]
    U16                  OBUF (Prop_obuf_I_O)         2.917     9.896 r  led_OBUF[3]_inst/O
                         net (fo=0)                   0.000     9.896    led[3]
    U16                                                               r  led[3] (OUT)
  -------------------------------------------------------------------    -------------------

Slack:                    inf
  Source:                 s_or
                            (input port)
  Destination:            led[4]
                            (output port)
  Path Group:             (none)
  Path Type:              Max at Slow Process Corner
  Data Path Delay:        9.528ns  (logic 3.981ns (41.779%)  route 5.547ns (58.221%))
  Logic Levels:           2  (IBUF=1 OBUF=1)

    Location             Delay type                Incr(ns)  Path(ns)    Netlist Resource(s)
  -------------------------------------------------------------------    -------------------
    H17                                               0.000     0.000 r  s_or (IN)
                         net (fo=0)                   0.000     0.000    s_or
    H17                  IBUF (Prop_ibuf_I_O)         1.050     1.050 r  s_or_IBUF_inst/O
                         net (fo=3, routed)           5.547     6.597    led_OBUF[4]
    V15                  OBUF (Prop_obuf_I_O)         2.931     9.528 r  led_OBUF[4]_inst/O
                         net (fo=0)                   0.000     9.528    led[4]
    V15                                                               r  led[4] (OUT)
  -------------------------------------------------------------------    -------------------

Slack:                    inf
  Source:                 s_nor
                            (input port)
  Destination:            led[5]
                            (output port)
  Path Group:             (none)
  Path Type:              Max at Slow Process Corner
  Data Path Delay:        9.387ns  (logic 3.976ns (42.352%)  route 5.411ns (57.648%))
  Logic Levels:           2  (IBUF=1 OBUF=1)

    Location             Delay type                Incr(ns)  Path(ns)    Netlist Resource(s)
  -------------------------------------------------------------------    -------------------
    J16                                               0.000     0.000 r  s_nor (IN)
                         net (fo=0)                   0.000     0.000    s_nor
    J16                  IBUF (Prop_ibuf_I_O)         1.055     1.055 r  s_nor_IBUF_inst/O
                         net (fo=3, routed)           5.411     6.466    led_OBUF[5]
    W16                  OBUF (Prop_obuf_I_O)         2.921     9.387 r  led_OBUF[5]_inst/O
                         net (fo=0)                   0.000     9.387    led[5]
    W16                                                               r  led[5] (OUT)
  -------------------------------------------------------------------    -------------------

Slack:                    inf
  Source:                 s_xor
                            (input port)
  Destination:            led[6]
                            (output port)
  Path Group:             (none)
  Path Type:              Max at Slow Process Corner
  Data Path Delay:        8.820ns  (logic 3.988ns (45.211%)  route 4.833ns (54.789%))
  Logic Levels:           2  (IBUF=1 OBUF=1)

    Location             Delay type                Incr(ns)  Path(ns)    Netlist Resource(s)
  -------------------------------------------------------------------    -------------------
    K13                                               0.000     0.000 r  s_xor (IN)
                         net (fo=0)                   0.000     0.000    s_xor
    K13                  IBUF (Prop_ibuf_I_O)         1.073     1.073 r  s_xor_IBUF_inst/O
                         net (fo=2, routed)           4.833     5.905    led_OBUF[6]
    W15                  OBUF (Prop_obuf_I_O)         2.915     8.820 r  led_OBUF[6]_inst/O
                         net (fo=0)                   0.000     8.820    led[6]
    W15                                                               r  led[6] (OUT)
  -------------------------------------------------------------------    -------------------

Slack:                    inf
  Source:                 s_and
                            (input port)
  Destination:            sonuc_reg/D
  Path Group:             (none)
  Path Type:              Max at Slow Process Corner
  Data Path Delay:        5.371ns  (logic 1.193ns (22.210%)  route 4.178ns (77.790%))
  Logic Levels:           2  (IBUF=1 LUT6=1)

    Location             Delay type                Incr(ns)  Path(ns)    Netlist Resource(s)
  -------------------------------------------------------------------    -------------------
    G21                                               0.000     0.000 r  s_and (IN)
                         net (fo=0)                   0.000     0.000    s_and
    G21                  IBUF (Prop_ibuf_I_O)         1.069     1.069 r  s_and_IBUF_inst/O
                         net (fo=3, routed)           4.178     5.247    led_OBUF[2]
    SLICE_X0Y89          LUT6 (Prop_lut6_I3_O)        0.124     5.371 r  sonuc_reg_i_1/O
                         net (fo=1, routed)           0.000     5.371    sonuc_reg_i_1_n_0
    SLICE_X0Y89          LDCE                                         r  sonuc_reg/D
  -------------------------------------------------------------------    -------------------

Slack:                    inf
  Source:                 sonuc_reg/G
                            (positive level-sensitive latch)
  Destination:            sonuc
                            (output port)
  Path Group:             (none)
  Path Type:              Max at Slow Process Corner
  Data Path Delay:        5.200ns  (logic 3.528ns (67.844%)  route 1.672ns (32.156%))
  Logic Levels:           2  (LDCE=1 OBUF=1)

    Location             Delay type                Incr(ns)  Path(ns)    Netlist Resource(s)
  -------------------------------------------------------------------    -------------------
    SLICE_X0Y89          LDCE                         0.000     0.000 r  sonuc_reg/G
    SLICE_X0Y89          LDCE (EnToQ_ldce_G_Q)        0.559     0.559 r  sonuc_reg/Q
                         net (fo=1, routed)           1.672     2.231    sonuc_OBUF
    Y13                  OBUF (Prop_obuf_I_O)         2.969     5.200 r  sonuc_OBUF_inst/O
                         net (fo=0)                   0.000     5.200    sonuc
    Y13                                                               r  sonuc (OUT)
  -------------------------------------------------------------------    -------------------





Min Delay Paths
--------------------------------------------------------------------------------------
Slack:                    inf
  Source:                 s_nor
                            (input port)
  Destination:            sonuc_reg/D
  Path Group:             (none)
  Path Type:              Min at Fast Process Corner
  Data Path Delay:        1.697ns  (logic 0.224ns (13.210%)  route 1.472ns (86.790%))
  Logic Levels:           2  (IBUF=1 LUT6=1)

    Location             Delay type                Incr(ns)  Path(ns)    Netlist Resource(s)
  -------------------------------------------------------------------    -------------------
    J16                                               0.000     0.000 r  s_nor (IN)
                         net (fo=0)                   0.000     0.000    s_nor
    J16                  IBUF (Prop_ibuf_I_O)         0.179     0.179 r  s_nor_IBUF_inst/O
                         net (fo=3, routed)           1.472     1.652    led_OBUF[5]
    SLICE_X0Y89          LUT6 (Prop_lut6_I0_O)        0.045     1.697 r  sonuc_reg_i_1/O
                         net (fo=1, routed)           0.000     1.697    sonuc_reg_i_1_n_0
    SLICE_X0Y89          LDCE                                         r  sonuc_reg/D
  -------------------------------------------------------------------    -------------------

Slack:                    inf
  Source:                 sonuc_reg/G
                            (positive level-sensitive latch)
  Destination:            sonuc
                            (output port)
  Path Group:             (none)
  Path Type:              Min at Fast Process Corner
  Data Path Delay:        1.713ns  (logic 1.390ns (81.145%)  route 0.323ns (18.855%))
  Logic Levels:           2  (LDCE=1 OBUF=1)

    Location             Delay type                Incr(ns)  Path(ns)    Netlist Resource(s)
  -------------------------------------------------------------------    -------------------
    SLICE_X0Y89          LDCE                         0.000     0.000 r  sonuc_reg/G
    SLICE_X0Y89          LDCE (EnToQ_ldce_G_Q)        0.158     0.158 r  sonuc_reg/Q
                         net (fo=1, routed)           0.323     0.481    sonuc_OBUF
    Y13                  OBUF (Prop_obuf_I_O)         1.232     1.713 r  sonuc_OBUF_inst/O
                         net (fo=0)                   0.000     1.713    sonuc
    Y13                                                               r  sonuc (OUT)
  -------------------------------------------------------------------    -------------------

Slack:                    inf
  Source:                 s_xor
                            (input port)
  Destination:            led[6]
                            (output port)
  Path Group:             (none)
  Path Type:              Min at Fast Process Corner
  Data Path Delay:        2.992ns  (logic 1.376ns (45.976%)  route 1.617ns (54.024%))
  Logic Levels:           2  (IBUF=1 OBUF=1)

    Location             Delay type                Incr(ns)  Path(ns)    Netlist Resource(s)
  -------------------------------------------------------------------    -------------------
    K13                                               0.000     0.000 r  s_xor (IN)
                         net (fo=0)                   0.000     0.000    s_xor
    K13                  IBUF (Prop_ibuf_I_O)         0.197     0.197 r  s_xor_IBUF_inst/O
                         net (fo=2, routed)           1.617     1.813    led_OBUF[6]
    W15                  OBUF (Prop_obuf_I_O)         1.179     2.992 r  led_OBUF[6]_inst/O
                         net (fo=0)                   0.000     2.992    led[6]
    W15                                                               r  led[6] (OUT)
  -------------------------------------------------------------------    -------------------

Slack:                    inf
  Source:                 s_nor
                            (input port)
  Destination:            led[5]
                            (output port)
  Path Group:             (none)
  Path Type:              Min at Fast Process Corner
  Data Path Delay:        3.200ns  (logic 1.364ns (42.613%)  route 1.836ns (57.387%))
  Logic Levels:           2  (IBUF=1 OBUF=1)

    Location             Delay type                Incr(ns)  Path(ns)    Netlist Resource(s)
  -------------------------------------------------------------------    -------------------
    J16                                               0.000     0.000 r  s_nor (IN)
                         net (fo=0)                   0.000     0.000    s_nor
    J16                  IBUF (Prop_ibuf_I_O)         0.179     0.179 r  s_nor_IBUF_inst/O
                         net (fo=3, routed)           1.836     2.016    led_OBUF[5]
    W16                  OBUF (Prop_obuf_I_O)         1.185     3.200 r  led_OBUF[5]_inst/O
                         net (fo=0)                   0.000     3.200    led[5]
    W16                                                               r  led[5] (OUT)
  -------------------------------------------------------------------    -------------------

Slack:                    inf
  Source:                 s_or
                            (input port)
  Destination:            led[4]
                            (output port)
  Path Group:             (none)
  Path Type:              Min at Fast Process Corner
  Data Path Delay:        3.383ns  (logic 1.369ns (40.459%)  route 2.014ns (59.541%))
  Logic Levels:           2  (IBUF=1 OBUF=1)

    Location             Delay type                Incr(ns)  Path(ns)    Netlist Resource(s)
  -------------------------------------------------------------------    -------------------
    H17                                               0.000     0.000 r  s_or (IN)
                         net (fo=0)                   0.000     0.000    s_or
    H17                  IBUF (Prop_ibuf_I_O)         0.174     0.174 r  s_or_IBUF_inst/O
                         net (fo=3, routed)           2.014     2.188    led_OBUF[4]
    V15                  OBUF (Prop_obuf_I_O)         1.195     3.383 r  led_OBUF[4]_inst/O
                         net (fo=0)                   0.000     3.383    led[4]
    V15                                                               r  led[4] (OUT)
  -------------------------------------------------------------------    -------------------

Slack:                    inf
  Source:                 s_nand
                            (input port)
  Destination:            led[3]
                            (output port)
  Path Group:             (none)
  Path Type:              Min at Fast Process Corner
  Data Path Delay:        3.388ns  (logic 1.374ns (40.555%)  route 2.014ns (59.445%))
  Logic Levels:           2  (IBUF=1 OBUF=1)

    Location             Delay type                Incr(ns)  Path(ns)    Netlist Resource(s)
  -------------------------------------------------------------------    -------------------
    G22                                               0.000     0.000 r  s_nand (IN)
                         net (fo=0)                   0.000     0.000    s_nand
    G22                  IBUF (Prop_ibuf_I_O)         0.193     0.193 r  s_nand_IBUF_inst/O
                         net (fo=3, routed)           2.014     2.206    led_OBUF[3]
    U16                  OBUF (Prop_obuf_I_O)         1.181     3.388 r  led_OBUF[3]_inst/O
                         net (fo=0)                   0.000     3.388    led[3]
    U16                                                               r  led[3] (OUT)
  -------------------------------------------------------------------    -------------------

Slack:                    inf
  Source:                 a
                            (input port)
  Destination:            led[0]
                            (output port)
  Path Group:             (none)
  Path Type:              Min at Fast Process Corner
  Data Path Delay:        3.472ns  (logic 1.421ns (40.927%)  route 2.051ns (59.073%))
  Logic Levels:           2  (IBUF=1 OBUF=1)

    Location             Delay type                Incr(ns)  Path(ns)    Netlist Resource(s)
  -------------------------------------------------------------------    -------------------
    E22                                               0.000     0.000 r  a (IN)
                         net (fo=0)                   0.000     0.000    a
    E22                  IBUF (Prop_ibuf_I_O)         0.204     0.204 r  a_IBUF_inst/O
                         net (fo=2, routed)           2.051     2.255    led_OBUF[0]
    T14                  OBUF (Prop_obuf_I_O)         1.217     3.472 r  led_OBUF[0]_inst/O
                         net (fo=0)                   0.000     3.472    led[0]
    T14                                                               r  led[0] (OUT)
  -------------------------------------------------------------------    -------------------

Slack:                    inf
  Source:                 b
                            (input port)
  Destination:            led[1]
                            (output port)
  Path Group:             (none)
  Path Type:              Min at Fast Process Corner
  Data Path Delay:        3.548ns  (logic 1.404ns (39.580%)  route 2.143ns (60.420%))
  Logic Levels:           2  (IBUF=1 OBUF=1)

    Location             Delay type                Incr(ns)  Path(ns)    Netlist Resource(s)
  -------------------------------------------------------------------    -------------------
    F21                                               0.000     0.000 r  b (IN)
                         net (fo=0)                   0.000     0.000    b
    F21                  IBUF (Prop_ibuf_I_O)         0.192     0.192 r  b_IBUF_inst/O
                         net (fo=2, routed)           2.143     2.335    led_OBUF[1]
    T15                  OBUF (Prop_obuf_I_O)         1.213     3.548 r  led_OBUF[1]_inst/O
                         net (fo=0)                   0.000     3.548    led[1]
    T15                                                               r  led[1] (OUT)
  -------------------------------------------------------------------    -------------------

Slack:                    inf
  Source:                 s_and
                            (input port)
  Destination:            led[2]
                            (output port)
  Path Group:             (none)
  Path Type:              Min at Fast Process Corner
  Data Path Delay:        3.595ns  (logic 1.372ns (38.170%)  route 2.223ns (61.830%))
  Logic Levels:           2  (IBUF=1 OBUF=1)

    Location             Delay type                Incr(ns)  Path(ns)    Netlist Resource(s)
  -------------------------------------------------------------------    -------------------
    G21                                               0.000     0.000 r  s_and (IN)
                         net (fo=0)                   0.000     0.000    s_and
    G21                  IBUF (Prop_ibuf_I_O)         0.193     0.193 r  s_and_IBUF_inst/O
                         net (fo=3, routed)           2.223     2.416    led_OBUF[2]
    T16                  OBUF (Prop_obuf_I_O)         1.179     3.595 r  led_OBUF[2]_inst/O
                         net (fo=0)                   0.000     3.595    led[2]
    T16                                                               r  led[2] (OUT)
  -------------------------------------------------------------------    -------------------





