Design Route Status
                                               :      # nets :
   ------------------------------------------- : ----------- :
   # of logical nets.......................... :          27 :
       # of nets not needing routing.......... :          18 :
           # of internally routed nets........ :          18 :
       # of routable nets..................... :           9 :
           # of fully routed nets............. :           9 :
       # of nets with routing errors.......... :           0 :
   ------------------------------------------- : ----------- :

